Anomaly Detection in Time Series
…
# Label anomaly direction
result <- result |>
  mutate(anomaly_type = case_when(
    is_anomaly & resid > 0 ~ "Spike",
    is_anomaly & resid < 0 ~ "Drop",
    TRUE ~ "Normal"
  ))

result

# A tibble: 76 × 8
   month      complaints trend season  resid z_score is_anomaly[,1] anomaly_type
   <date>          <int> <dbl>  <dbl>  <dbl>   <dbl> <lgl>          <chr>       
 1 2087-05-01        648  656.   1.66  -9.68 -0.105  FALSE          Normal      
 2 2087-06-01        723  661. -31.1   93.4   0.961  FALSE          Normal      
 3 2087-07-01        702  666.  85.1  -48.6  -0.508  FALSE          Normal      
 4 2087-08-01        653  670. -15.3   -2.07 -0.0259 FALSE          Normal      
 5 2087-09-01        638  675.  -5.68 -31.5  -0.330  FALSE          Normal      
 6 2087-10-01        664  680.  30.1  -45.7  -0.477  FALSE          Normal      
 7 2087-11-01        624  684. -56.9   -3.06 -0.0362 FALSE          Normal      
 8 2087-12-01        690  688. -15.0   17.4   0.176  FALSE          Normal      
 9 2088-01-01        654  691. -11.8  -25.5  -0.268  FALSE          Normal      
10 2088-02-01        655  693. -68.4   29.9   0.305  FALSE          Normal      
# ℹ 66 more rows
…
